letter,file,font,size,width,height,weight,unit_weight,x_center,y_center,x_norm,y_norm
a,./src/a_gomarice_font_yaki_goma_48.bmp,gomarice_font_yaki_goma,48,38,21,454,0.568922305764411,24,11,63.1578947368421,52.38095238095239
b,./src/b_gomarice_font_yaki_goma_48.bmp,gomarice_font_yaki_goma,48,38,22,430,0.5143540669856459,22,12,57.89473684210527,54.54545454545454
c,./src/c_gomarice_font_yaki_goma_48.bmp,gomarice_font_yaki_goma,48,38,21,358,0.44862155388471175,21,7,55.26315789473685,33.33333333333333
d,./src/d_gomarice_font_yaki_goma_48.bmp,gomarice_font_yaki_goma,48,39,22,449,0.5233100233100233,22,9,56.41025641025641,40.909090909090914
e,./src/e_gomarice_font_yaki_goma_48.bmp,gomarice_font_yaki_goma,48,38,21,380,0.47619047619047616,20,8,52.63157894736842,38.095238095238095
f,./src/f_gomarice_font_yaki_goma_48.bmp,gomarice_font_yaki_goma,48,38,20,336,0.4421052631578947,17,7,44.73684210526316,35.0
g,./src/g_gomarice_font_yaki_goma_48.bmp,gomarice_font_yaki_goma,48,38,22,399,0.4772727272727273,23,8,60.526315789473685,36.36363636363637
h,./src/h_gomarice_font_yaki_goma_48.bmp,gomarice_font_yaki_goma,48,38,24,466,0.5109649122807017,21,11,55.26315789473685,45.83333333333333
i,./src/i_gomarice_font_yaki_goma_48.bmp,gomarice_font_yaki_goma,48,38,13,253,0.5121457489878543,19,5,50.0,38.46153846153847
j,./src/j_gomarice_font_yaki_goma_48.bmp,gomarice_font_yaki_goma,48,38,21,349,0.43734335839599,27,13,71.05263157894737,61.904761904761905
k,./src/k_gomarice_font_yaki_goma_48.bmp,gomarice_font_yaki_goma,48,37,22,427,0.5245700245700246,22,9,59.45945945945946,40.909090909090914
l,./src/l_gomarice_font_yaki_goma_48.bmp,gomarice_font_yaki_goma,48,38,20,325,0.4276315789473684,22,5,57.89473684210527,25.0
m,./src/m_gomarice_font_yaki_goma_48.bmp,gomarice_font_yaki_goma,48,38,24,464,0.5087719298245614,22,10,57.89473684210527,41.66666666666667
n,./src/n_gomarice_font_yaki_goma_48.bmp,gomarice_font_yaki_goma,48,38,24,479,0.5252192982456141,21,11,55.26315789473685,45.83333333333333
o,./src/o_gomarice_font_yaki_goma_48.bmp,gomarice_font_yaki_goma,48,38,22,449,0.5370813397129187,23,11,60.526315789473685,50.0
p,./src/p_gomarice_font_yaki_goma_48.bmp,gomarice_font_yaki_goma,48,38,20,351,0.4618421052631579,18,6,47.368421052631575,30.0
q,./src/q_gomarice_font_yaki_goma_48.bmp,gomarice_font_yaki_goma,48,38,22,463,0.5538277511961722,25,10,65.78947368421053,45.45454545454545
r,./src/r_gomarice_font_yaki_goma_48.bmp,gomarice_font_yaki_goma,48,38,21,421,0.5275689223057645,22,9,57.89473684210527,42.857142857142854
s,./src/s_gomarice_font_yaki_goma_48.bmp,gomarice_font_yaki_goma,48,38,20,333,0.4381578947368421,23,10,60.526315789473685,50.0
t,./src/t_gomarice_font_yaki_goma_48.bmp,gomarice_font_yaki_goma,48,38,19,339,0.4695290858725762,19,7,50.0,36.84210526315789
u,./src/u_gomarice_font_yaki_goma_48.bmp,gomarice_font_yaki_goma,48,38,22,448,0.5358851674641149,23,11,60.526315789473685,50.0
v,./src/v_gomarice_font_yaki_goma_48.bmp,gomarice_font_yaki_goma,48,38,21,382,0.47869674185463656,19,7,50.0,33.33333333333333
w,./src/w_gomarice_font_yaki_goma_48.bmp,gomarice_font_yaki_goma,48,38,23,449,0.5137299771167048,21,10,55.26315789473685,43.47826086956522
x,./src/x_gomarice_font_yaki_goma_48.bmp,gomarice_font_yaki_goma,48,38,20,353,0.4644736842105263,22,7,57.89473684210527,35.0
y,./src/y_gomarice_font_yaki_goma_48.bmp,gomarice_font_yaki_goma,48,38,19,307,0.425207756232687,16,6,42.10526315789473,31.57894736842105
z,./src/z_gomarice_font_yaki_goma_48.bmp,gomarice_font_yaki_goma,48,37,20,355,0.4797297297297297,21,9,56.75675675675676,45.0
A,./src/A_gomarice_font_yaki_goma_48.bmp,gomarice_font_yaki_goma,48,38,21,454,0.568922305764411,24,11,63.1578947368421,52.38095238095239
B,./src/B_gomarice_font_yaki_goma_48.bmp,gomarice_font_yaki_goma,48,38,22,430,0.5143540669856459,22,12,57.89473684210527,54.54545454545454
C,./src/C_gomarice_font_yaki_goma_48.bmp,gomarice_font_yaki_goma,48,38,21,358,0.44862155388471175,21,7,55.26315789473685,33.33333333333333
D,./src/D_gomarice_font_yaki_goma_48.bmp,gomarice_font_yaki_goma,48,39,22,449,0.5233100233100233,22,9,56.41025641025641,40.909090909090914
E,./src/E_gomarice_font_yaki_goma_48.bmp,gomarice_font_yaki_goma,48,38,21,380,0.47619047619047616,20,8,52.63157894736842,38.095238095238095
F,./src/F_gomarice_font_yaki_goma_48.bmp,gomarice_font_yaki_goma,48,38,20,336,0.4421052631578947,17,7,44.73684210526316,35.0
G,./src/G_gomarice_font_yaki_goma_48.bmp,gomarice_font_yaki_goma,48,38,22,399,0.4772727272727273,23,8,60.526315789473685,36.36363636363637
H,./src/H_gomarice_font_yaki_goma_48.bmp,gomarice_font_yaki_goma,48,38,24,469,0.5142543859649122,21,11,55.26315789473685,45.83333333333333
I,./src/I_gomarice_font_yaki_goma_48.bmp,gomarice_font_yaki_goma,48,38,13,253,0.5121457489878543,19,5,50.0,38.46153846153847
J,./src/J_gomarice_font_yaki_goma_48.bmp,gomarice_font_yaki_goma,48,38,21,349,0.43734335839599,27,13,71.05263157894737,61.904761904761905
K,./src/K_gomarice_font_yaki_goma_48.bmp,gomarice_font_yaki_goma,48,37,22,427,0.5245700245700246,22,9,59.45945945945946,40.909090909090914
L,./src/L_gomarice_font_yaki_goma_48.bmp,gomarice_font_yaki_goma,48,38,20,325,0.4276315789473684,22,5,57.89473684210527,25.0
M,./src/M_gomarice_font_yaki_goma_48.bmp,gomarice_font_yaki_goma,48,38,24,464,0.5087719298245614,22,10,57.89473684210527,41.66666666666667
N,./src/N_gomarice_font_yaki_goma_48.bmp,gomarice_font_yaki_goma,48,38,24,479,0.5252192982456141,21,11,55.26315789473685,45.83333333333333
O,./src/O_gomarice_font_yaki_goma_48.bmp,gomarice_font_yaki_goma,48,38,22,449,0.5370813397129187,23,11,60.526315789473685,50.0
P,./src/P_gomarice_font_yaki_goma_48.bmp,gomarice_font_yaki_goma,48,38,20,351,0.4618421052631579,18,6,47.368421052631575,30.0
Q,./src/Q_gomarice_font_yaki_goma_48.bmp,gomarice_font_yaki_goma,48,38,22,463,0.5538277511961722,25,10,65.78947368421053,45.45454545454545
R,./src/R_gomarice_font_yaki_goma_48.bmp,gomarice_font_yaki_goma,48,38,21,421,0.5275689223057645,22,9,57.89473684210527,42.857142857142854
S,./src/S_gomarice_font_yaki_goma_48.bmp,gomarice_font_yaki_goma,48,38,20,333,0.4381578947368421,23,10,60.526315789473685,50.0
T,./src/T_gomarice_font_yaki_goma_48.bmp,gomarice_font_yaki_goma,48,38,19,339,0.4695290858725762,19,7,50.0,36.84210526315789
U,./src/U_gomarice_font_yaki_goma_48.bmp,gomarice_font_yaki_goma,48,38,22,448,0.5358851674641149,23,11,60.526315789473685,50.0
V,./src/V_gomarice_font_yaki_goma_48.bmp,gomarice_font_yaki_goma,48,38,21,382,0.47869674185463656,19,7,50.0,33.33333333333333
W,./src/W_gomarice_font_yaki_goma_48.bmp,gomarice_font_yaki_goma,48,38,23,449,0.5137299771167048,21,10,55.26315789473685,43.47826086956522
X,./src/X_gomarice_font_yaki_goma_48.bmp,gomarice_font_yaki_goma,48,38,20,353,0.4644736842105263,22,7,57.89473684210527,35.0
Y,./src/Y_gomarice_font_yaki_goma_48.bmp,gomarice_font_yaki_goma,48,38,19,307,0.425207756232687,16,6,42.10526315789473,31.57894736842105
Z,./src/Z_gomarice_font_yaki_goma_48.bmp,gomarice_font_yaki_goma,48,37,20,355,0.4797297297297297,21,9,56.75675675675676,45.0
